{
    "docs": [
        {
            "location": "/", 
            "text": "Welcome to Libreflix Docs\n\n\nLogo ter\u00e1 algo aqui. \n3", 
            "title": "Welcome to Libreflix Docs"
        }, 
        {
            "location": "/#welcome-to-libreflix-docs", 
            "text": "Logo ter\u00e1 algo aqui.  3", 
            "title": "Welcome to Libreflix Docs"
        }
    ]
}